com/epam/training/student_allayar_jandullaev/ta_training_java_framework/test/CheckEstimatedCostTest.class
com/epam/training/student_allayar_jandullaev/ta_training_java_framework/test/CommonConditions.class
com/epam/training/student_allayar_jandullaev/ta_training_java_framework/driver/DriverSingleton.class
com/epam/training/student_allayar_jandullaev/ta_training_java_framework/model/Calculator.class
com/epam/training/student_allayar_jandullaev/ta_training_java_framework/pages/AbstractPage.class
com/epam/training/student_allayar_jandullaev/ta_training_java_framework/util/TabUtils.class
com/epam/training/student_allayar_jandullaev/ta_training_java_framework/test/TotalEstimatedCostTest.class
com/epam/training/student_allayar_jandullaev/ta_training_java_framework/pages/yopmail/YopMailHomePage.class
com/epam/training/student_allayar_jandullaev/ta_training_java_framework/pages/googleCloud/SearchResultPage.class
com/epam/training/student_allayar_jandullaev/ta_training_java_framework/util/TestListener.class
com/epam/training/student_allayar_jandullaev/ta_training_java_framework/service/GoogleCalculatorService.class
com/epam/training/student_allayar_jandullaev/ta_training_java_framework/service/TestDataReader.class
com/epam/training/student_allayar_jandullaev/ta_training_java_framework/pages/googleCloud/ComputeEnginePage.class
com/epam/training/student_allayar_jandullaev/ta_training_java_framework/pages/googleCloud/GoogleCloudHomePage.class
com/epam/training/student_allayar_jandullaev/ta_training_java_framework/pages/yopmail/YopMailEmailPage.class
com/epam/training/student_allayar_jandullaev/ta_training_java_framework/pages/yopmail/YopMailGeneratorPage.class
