/Users/allayar/Desktop/ta_training-java/Framework/src/test/java/com/epam/training/student_allayar_jandullaev/ta_training_java_framework/model/Calculator.java
/Users/allayar/Desktop/ta_training-java/Framework/src/test/java/com/epam/training/student_allayar_jandullaev/ta_training_java_framework/util/TabUtils.java
/Users/allayar/Desktop/ta_training-java/Framework/src/test/java/com/epam/training/student_allayar_jandullaev/ta_training_java_framework/pages/googleCloud/SearchResultPage.java
/Users/allayar/Desktop/ta_training-java/Framework/src/test/java/com/epam/training/student_allayar_jandullaev/ta_training_java_framework/pages/yopmail/YopMailEmailPage.java
/Users/allayar/Desktop/ta_training-java/Framework/src/test/java/com/epam/training/student_allayar_jandullaev/ta_training_java_framework/pages/yopmail/YopMailGeneratorPage.java
/Users/allayar/Desktop/ta_training-java/Framework/src/test/java/com/epam/training/student_allayar_jandullaev/ta_training_java_framework/test/CheckEstimatedCostTest.java
/Users/allayar/Desktop/ta_training-java/Framework/src/test/java/com/epam/training/student_allayar_jandullaev/ta_training_java_framework/pages/yopmail/YopMailHomePage.java
/Users/allayar/Desktop/ta_training-java/Framework/src/test/java/com/epam/training/student_allayar_jandullaev/ta_training_java_framework/pages/googleCloud/GoogleCloudHomePage.java
/Users/allayar/Desktop/ta_training-java/Framework/src/test/java/com/epam/training/student_allayar_jandullaev/ta_training_java_framework/util/TestListener.java
/Users/allayar/Desktop/ta_training-java/Framework/src/test/java/com/epam/training/student_allayar_jandullaev/ta_training_java_framework/test/CommonConditions.java
/Users/allayar/Desktop/ta_training-java/Framework/src/test/java/com/epam/training/student_allayar_jandullaev/ta_training_java_framework/driver/DriverSingleton.java
/Users/allayar/Desktop/ta_training-java/Framework/src/test/java/com/epam/training/student_allayar_jandullaev/ta_training_java_framework/pages/googleCloud/ComputeEnginePage.java
/Users/allayar/Desktop/ta_training-java/Framework/src/test/java/com/epam/training/student_allayar_jandullaev/ta_training_java_framework/service/TestDataReader.java
/Users/allayar/Desktop/ta_training-java/Framework/src/test/java/com/epam/training/student_allayar_jandullaev/ta_training_java_framework/test/TotalEstimatedCostTest.java
/Users/allayar/Desktop/ta_training-java/Framework/src/test/java/com/epam/training/student_allayar_jandullaev/ta_training_java_framework/pages/AbstractPage.java
/Users/allayar/Desktop/ta_training-java/Framework/src/test/java/com/epam/training/student_allayar_jandullaev/ta_training_java_framework/service/GoogleCalculatorService.java
